86
143
328
542
634
671
821
825
927
1103
1425
1490
1579
1818
1900
2531
2555
2606
2686
2833
3077
3209
3264
3293
3353
3365
3386
4489
4554
4880
4916
4971
5247
5294
5324
5356
5377
5503
5706
5769
5879
6160
6295
6306
6334
6379
6432
6460
6491
6614
6658
6810
6943
6945
7049
7159
7256
7558
7627
7653
7722
7855
7888
7944
7954
8010
8190
8267
8294
8519
8547
8564
8794
9226
9514
9738
10008
10012
10125
10179
10534
10581
10920
11052
11099
11159
11227
11231
11238
11269
11487
11497
11579
11712
11758
11801
12108
12131
12284
12345
12750
12875
12896
12943
13082
13362
13397
13565
13769
13868
13876
14209
14269
14526
14547
14567
14619
14819
14820
14954
14975
15109
15151
15236
15286
15329
15400
15919
15954
16112
16486
16870
16959
17068
17174
17305
17438
17570
17583
17755
17954
18099
18179
18194
18402
18571
18605
18614
18702
19737
19766
19797
19964
20063
20355
20640
20646
20915
21183
21232
21383
22004
22041
22044
22116
22123
22167
22191
22193
22230
22420
22427
22667
22954
23023
23126
23194
23294
23406
23415
23487
23754
23815
23927
23949
23982
24416
24591
24652
24682
24912
25162
25181
25239
25353
25404
25759
26241
26427
26466
26483
26747
26802
26828
26905
26932
27065
27191
27293
27394
27412
27564
27897
27982
28174
28261
28415
28525
28560
28589
28903
29019
29197
29226
29241
29322
29465
29472
29538
29715
29793
29962
30054
30114
30349
30413
30820
31176
31258
31599
31602
31748
31825
31902
31912
31948
32067
32248
32405
32464
32700
32967
33047
33111
33127
33186
33215
33352
33612
33749
34409
34645
34689
35032
35093
35150
35197
35313
35711
35732
35880
35935
36218
36345
36473
36528
36805
37157
37177
37875
37956
38177
38178
38350
38531
38576
38718
38823
38850
38905
39141
39155
39580
39598
39708
39747
39790
39900
40108
40428
40498
40737
40911
41104
41331
41369
41549
41572
41635
41776
41796
41939
41952
42137
42166
42285
42339
42458
42680
42735
42875
42876
43033
43202
43220
43404
43580
43606
43693
43734
44038
44389
44536
44612
44625
44749
44780
44953
45004
45180
45425
45634
45663
46106
46320
46382
46454
46460
46729
46749
47073
47131
47203
47347
47405
47774
48035
48181
48287
48288
48421
48674
48907
49014
49069
49234
49283
49458
49551
49977
50106
50145
50463
50994
50995
51027
51610
51706
51750
51862
51908
52259
52565
52591
52819
53095
53221
53385
53423
53425
53451
53662
53677
53754
53756
53788
53931
53957
54218
54618
54696
55199
55232
55363
55737
56205
56226
56293
56443
56572
56676
56736
56837
57265
57274
57339
57978
58070
58099
58106
58254
58257
58393
58517
58926
59525
59679
59798
60060
60689
60856
61048
61182
61506
61722
61831
61836
61849
61850
61852
61895
61982
62030
62244
62293
62386
62468
62500
62691
62815
62839
62880
62923
63330
63399
63519
64259
64270
64431
64510
64593
64635
64705
64731
64772
65179
65213
65334
65425
65443
65533
65661
65712
66064
66355
66503
66508
66642
66662
66929
67114
67199
67379
67491
67631
67634
67835
68053
68075
68125
68206
68335
68586
68786
68898
68933
69015
69136
69500
69512
69583
69917
69929
70011
70347
70602
70659
70774
70815
70870
71043
71344
71602
71667
71691
71756
71988
72098
72126
72550
72731
72839
72909
73141
73215
73567
73892
73976
74124
74135
74787
74863
74975
74982
75052
75095
75122
75146
75455
75646
75742
76079
76082
76107
76293
76522
76627
76882
76910
76973
77472
77709
77813
77864
77873
77989
78213
78263
78404
78469
78550
78656
78683
78737
78892
78985
79355
79407
79495
79602
79611
79632
79896
80091
80117
80471
80564
80780
80788
80906
81003
81031
81318
81361
81714
82142
82281
82480
82627
82737
82874
82940
83117
83448
83516
83669
83682
83739
83808
83979
84183
84582
84701
84730
84839
84870
85004
85407
85452
85483
85589
85657
85665
85765
86140
86686
87027
87208
87244
87308
87509
88080
88102
88470
88720
88899
89128
89166
89225
89355
89580
89582
89743
90343
90346
90365
90433
90640
90956
91795
91969
92092
92167
92192
92905
92974
93232
93391
93553
93554
93576
93657
93685
93785
94318
94390
94536
94548
94610
94614
94632
94663
94766
94813
94858
94952
95410
95483
95501
95509
95753
95778
95940
96091
96328
96596
96625
96660
96785
96946
97170
97217
97458
97580
97595
97782
97822
97989
98328
98405
98520
98599
98716
98881
99265
99316
99443
99956
100020
100159
100306
100413
100896
100958
101241
101461
101491
101602
101753
101884
101906
101951
102420
102630
102765
102908
102935
103008
103274
103431
103499
103642
103687
104124
104320
104397
104537
104550
104842
105021
105035
105179
105396
105511
105751
105872
106199
106290
106293
106314
106596
106615
106739
106874
107001
107019
107450
107527
107541
107776
107900
107962
107977
108069
108156
108164
108274
108355
108566
108669
108876
108917
109118
109119
109151
109156
109359
109393
109486
109602
109635
109663
109699
109976
110060
110169
110389
110417
110439
110445
110596
110674
110783
111195
111970
111996
112117
112212
112298
112377
112698
112739
112757
112769
112865
112938
112949
113114
113166
113192
113294
113309
113338
113393
113488
113929
113991
114185
114288
114521
114668
114692
114978
115028
115033
115197
115282
115300
115314
115574
116003
116174
116455
116618
116804
116827
116834
117117
117131
117205
117371
117441
117585
118447
118715
118769
118895
119006
119129
119232
119636
119773
119939
120655
120666
121237
121263
121562
121644
121663
121716
121720
121852
122051
122264
122611
122726
123036
123166
123175
123201
123514
123539
123552
123699
124106
124117
124122
124246
124591
124694
124737
124934
125286
125727
126073
126263
126281
126305
126409
126447
126531
126536
126642
126810
126906
127037
127055
127100
127629
127761
128250
128328
128417
128560
128729
128813
129490
130239
130295
130440
130465
130637
130718
130807
131108
131312
131339
131366
131418
131450
131661
131784
131937
132373
132386
132447
132587
132670
132841
133125
133149
133153
133273
133636
133654
133730
133739
134037
134071
134100
134206
134309
134327
134343
134351
134430
134551
134596
134697
134902
134918
134981
135193
135316
135585
135608
135683
135761
136218
136285
136464
136533
136653
136661
136698
136819
136833
136943
136979
137042
137341
137413
137451
137810
137992
138234
138562
138789
138922
139139
139296
139309
139604
139932
139984
140006
140053
140092
140152
140179
140481
140623
140627
140761
140921
140940
141003
141232
141453
141475
141608
141800
141851
142113
142689
142718
142793
142996
143174
143334
143576
143944
144180
144552
144660
144929
144932
145048
145128
145149
145241
145288
145361
146053
146188
146202
146432
146850
147082
147277
147347
147422
147488
147698
147787
147843
147958
148551
148646
148761
148783
148910
149185
149223
149280
149376
149571
149583
149592
149909
149916
150164
150354
150374
150614
150669
151092
151516
151534
151731
151757
151758
151831
151857
151922
151988
152106
152238
152389
152470
152483
152505
152530
152543
152702
153204
153235
153279
153507
153570
153966
154011
154222
154257
154530
154616
154755
154847
154947
155083
155154
155355
155466
155578
155624
155644
155811
155885
155954
156069
156259
156556
156652
156696
156878
157021
157085
157434
157783
157801
157804
158302
158583
158607
158625
158701
158787
158801
158841
158977
158999
159310
159375
159649
159972
159993
160188
160190
160195
160345
160403
160580
160589
160671
160741
160822
160901
161079
161277
161348
161595
161622
161879
161886
162084
162362
162452
162677
162763
162998
163020
163031
163485
163575
163615
163707
163755
164040
164041
164222
164292
164357
164390
165036
165061
165164
166261
166522
166563
166624
166813
166828
166985
167426
167477
167855
167963
168032
168294
168454
168521
168542
168797
169154
169159
169321
169347
169588
169794
170000
170172
170253
170340
170540
170835
170902
170930
171063
171378
171622
171834
172096
172327
172784
172935
173081
173153
173161
173379
173610
173801
173812
174129
174605
174861
175021
175189
175314
175451
175734
176091
176155
176295
176385
176397
176483
176527
176563
176568
176622
176826
176912
177182
178048
178319
178438
178577
178685
178749
178838
178951
179187
179326
179390
179405
179462
179519
179753
179781
179930
179997
180048
180179
180402
180447
180495
180549
180555
181022
181043
181104
181305
181534
181782
181857
181906
182028
182469
182500
182516
182604
182960
183055
183374
183538
183762
183786
183847
184325
184371
184504
184786
184789
185305
185360
185639
185716
185832
185925
186171
186177
186196
186246
186315
186405
186449
186626
186703
186719
186720
186737
186888
186962
186977
187001
187063
187244
187989
188002
188087
188386
188689
188722
188935
189103
189267
189605
190156
190313
190406
190568
190839
190881
190906
190921
190957
190991
190992
191261
191353
191363
191425
191669
191687
191879
191913
192047
192091
192167
192269
192362
192579
192671
192702
192788
192920
192964
193034
193634
193738
193951
194437
194448
194518
194862
194909
194969
195513
195594
195644
195800
195837
195897
195911
196091
196117
196119
196355
196676
196919
196944
196998
197200
197219
197273
197482
197573
197678
197792
197864
197917
198017
198269
198406
198653
198960
198969
199134
199141
199695
199739
199794
199951
200058
200315
200503
200560
200583
200605
200752
200812
200840
200941
201184
201246
201425
201431
201738
201918
202080
202562
202827
202853
203096
203166
203336
203452
203454
203521
203564
204170
204275
204603
204779
204792
205289
205354
205676
205782
205883
206166
206435
206473
206539
206628
206791
206806
207339
207595
207620
207622
207640
207733
207782
208020
208028
208075
208172
208206
208252
208329
208376
208408
208644
208974
208994
209102
209179
209185
209682
209722
209782
209893
209915
210124
210175
210195
210431
210847
210849
210957
211002
211041
211054
211141
211381
211425
211863
211867
211874
212063
212082
212116
212198
212351
212589
212671
212838
212903
213219
213280
213419
213506
213997
214204
214205
214216
214250
214463
214492
214759
214803
215563
215618
215782
215805
215847
215884
216038
216325
216551
217009
217341
217522
217787
217886
217928
218041
218173
218459
218734
219059
219248
219283
219313
219357
219434
219440
219589
219763
219798
220025
220045
220072
220152
220317
220605
220770
220790
220795
220898
221155
221199
221246
221252
221438
221494
221521
221616
221785
222206
222309
222346
222358
222458
222475
222735
222782
222791
222811
222977
223121
223616
223905
224055
224093
224128
224190
224505
224596
224695
224975
225686
225709
225769
225963
226373
226383
226460
226585
226662
226825
227186
227433
227456
227638
227657
227683
227742
227928
228144
228474
228504
228552
228734
229067
229172
229221
229347
229559
229616
229654
229747
229948
230048
230190
230468
230756
230893
230996
231014
231035
231103
231104
231169
231524
231863
232379
232646
232716
232755
233137
233193
233263
233272
233341
233476
233627
233926
234022
234370
234516
234709
234794
235213
235380
235621
235916
236217
236714
236717
236866
237131
237162
237282
237427
237560
237689
237699
237954
238013
238203
238245
238263
238272
238568
238618
238729
238799
238866
239235
239791
240322
240439
240618
241068
241288
241762
241975
242278
242677
242771
243071
243085
243205
243324
243382
243416
243518
243861
244135
244218
244231
244424
244646
244671
244804
244875
244908
244979
245481
246076
246084
246358
246435
246442
246503
246528
246597
246880
247006
247265
247366
247465
247866
247918
248009
248227
248236
248310
248355
248640
248701
248834
248910
248945
249259
249352
249561
249711
249835
249955
250239
250261
250268
250276
250708
250855
251312
251330
251347
251358
251509
251511
251797
252022
252375
252925
253006
253556
253576
253579
253658
253860
254033
254046
254228
254347
254656
254711
254983
255010
255155
255385
255483
255494
255749
255795
256403
257066
257178
257421
257894
258336
258439
258460
258869
259309
259585
259614
259652
259733
259906
260097
260101
260223
260310
260317
260320
260393
260888
260957
260962
261060
261151
261388
261514
261541
261783
262124
262308
262386
262673
262703
262777
263002
263098
263418
263456
263599
263724
263744
263767
264165
264353
264406
264554
264753
264909
264987
265158
265160
265186
265233
265273
265366
265464
265625
265646
266278
266298
266418
266968
266977
267115
267189
267321
267515
267612
267710
267851
268036
268523
268552
268577
268643
268710
268927
269199
269234
269303
269355
269532
269588
269605
269790
270083
270330
270478
270612
270925
271401
271422
271560
271639
272027
272110
272675
272736
272740
272790
272807
273336
273791
274123
274156
274286
274521
274605
274715
274839
274897
274900
274931
274934
275008
275027
275304
275499
275722
275741
275829
275832
276105
276354
276476
276798
276986
277085
277163
277215
277267
277403
277550
277797
277852
277854
278097
278166
278238
278315
278509
278749
278763
278913
279387
279422
279602
279697
279994
280107
280123
280191
280220
280257
280396
280554
280556
280589
280731
280866
280913
280999
281158
281180
281220
281394
281397
281534
281615
281772
281800
281855
282046
282069
282293
283896
283970
284047
284338
284365
284578
284676
284824
285285
285292
285332
285400
285651
285742
285773
285841
285851
286471
286556
286696
287406
287422
287550
287574
287760
287875
288127
288270
288442
288513
288578
288642
288797
289027
289343
289594
289654
289813
289814
289846
289960
289968
290113
290215
290260
290403
290846
291202
291373
291537
291677
291861
291873
291915
292009
292055
292112
292232
292478
292512
292596
292622
293276
293366
293577
293741
293805
293819
293833
293906
293964
294305
294410
294659
294712
294877
294968
295105
295138
295231
295308
295626
295716
295778
295862
296072
296330
296584
296754
296884
297045
297610
297698
298017
298077
298135
298147
298195
298225
298380
298586
298913
299010
299050
299305
299319
299351
299433
299492
300028
300280
300479
300579
300584
301128
301651
301735
301988
302199
302227
302310
302428
302552
302684
302707
303340
303342
303423
303970
304221
304645
304758
305106
305247
305414
305423
306044
306049
306089
306161
306672
306868
306895
306913
307668
307786
308021
308264
308327
308466
308536
308610
308672
308772
308785
308889
308919
309034
309261
309338
309872
310047
310053
310196
310227
310536
310553
310561
310600
310889
310903
311065
311116
311361
311366
311550
311615
311620
311678
311796
311879
312263
312288
312686
312876
312943
313169
313359
313360
313502
313538
313608
313647
313735
314065
314135
314246
314259
314328
314450
314554
314572
314778
314943
314986
315013
315191
315221
315242
315402
315609
315610
315668
315795
315948
316031
316075
316281
316441
316557
316667
316694
316699
316703
316746
316801
316867
317410
317832
317838
318063
318132
318314
318365
318571
318657
318840
319163
319322
319354
319494
319647
320066
320112
320171
320467
320661
321007
321014
321185
321258
321328
321466
321497
321665
321776
321897
321960
322315
322337
322473
322509
322562
322610
322620
322824
323162
323230
323379
323418
323427
323491
323758
324112
324116
324155
324231
324275
324342
324634
324688
324710
324995
325065
325115
325175
325186
325211
325284
325362
325371
325623
325688
326504
326550
326598
326814
327068
327110
327338
327432
327450
327462
327561
327754
327936
328110
328158
328346
328373
328494
328569
328699
328797
328959
329024
329469
329566
329751
329797
329847
330241
330400
330511
330736
330909
331096
331139
331186
331271
331315
331616
331858
331998
332003
332012
332322
332362
332427
332459
332579
332722
332812
332923
333066
333431
333485
333537
333626
333663
333665
333691
333799
333846
333862
333922
333995
334110
334170
334185
334607
334742
334752
335009
335132
335284
335323
335380
335477
335590
335784
335864
335975
336335
336397
336427
336457
336489
336668
336812
336980
337018
337095
337185
337403
337517
337619
337730
337748
337760
337775
337802
338258
338718
338807
338866
338910
339310
340034
340095
340139
340157
340187
340621
340689
340699
340843
340898
340935
341047
341275
341448
341529
342051
342244
342318
342831
342921
343009
343066
343167
343213
343256
343257
343404
343679
343703
343967
344197
344456
344491
344782
344920
344996
345090
345117
345216
345436
345745
346190
346275
346287
346375
346469
346785
346851
347023
347111
347128
347155
347179
347217
347256
347392
347507
347535
347849
348045
348302
348316
348478
348483
348907
349069
349403
349559
349875
350067
350214
350235
350335
350413
350492
350688
350720
350940
351217
351567
351702
351809
352612
352690
352828
353009
353180
353316
353480
353748
353866
353915
353933
353938
353952
353976
353981
354003
354121
354242
354402
354480
354690
354741
354868
354878
355021
355477
355610
355801
355866
355975
356097
356182
356449
356742
356827
357003
357041
357060
357139
357561
357871
358033
358079
358265
358281
358342
358391
358425
358489
358517
358633
358756
358965
359048
359719
359753
359789
360191
360352
360397
360408
360700
360716
360739
360779
360808
360919
361124
361221
361375
361516
361685
361815
361850
361928
362090
362192
362244
362281
362360
362558
362614
362766
363298
363432
363433
363464
363606
363826
363848
363867
363939
363951
364237
364464
364508
364549
364862
365047
365068
365095
365099
365187
365191
365208
365236
365298
365345
365363
365385
365514
365521
365557
365642
365649
365709
365728
366061
366178
366274
366399
366476
366480
366669
366867
367148
367398
367434
367442
367515
367838
368206
368242
368249
368356
368438
368450
368505
368702
369049
369204
369279
369589
369603
369697
369966
370009
370363
370523
370543
370610
370798
370813
370873
370914
371002
371166
371244
371564
371598
371718
371800
371940
372511
372718
373212
373315
373457
373571
373637
373866
374042
374061
374135
374258
374308
374361
374605
374666
374734
375469
375473
375939
376079
376490
376558
376625
376838
376870
376945
377252
377294
377464
377809
377837
377964
377984
378203
378268
378302
378636
378929
379159
379314
379316
379332
379578
380292
380414
380440
380588
380620
380827
380834
380993
381069
381128
381270
381555
382046
382069
382083
382274
382383
382401
382438
382554
382569
382669
383084
383512
383536
383764
384058
384085
384093
384412
384461
384475
384626
384666
384693
384700
384895
384907
384910
384924
385037
385283
385322
385323
385625
385796
385863
385997
386066
386204
386257
386291
386564
386585
386623
386637
386794
387270
387379
387392
387492
387601
387724
387748
387764
388106
388171
388391
388511
388531
388611
388847
388928
389206
389226
389232
389532
389542
389743
389770
389884
389984
390093
390120
390161
390342
390663
390723
390792
391101
391203
391285
391652
391831
391862
391896
392060
392422
392481
393050
393230
393593
393656
393720
393928
394132
394197
394208
394326
394517
394529
394547
394653
394713
394992
395080
395180
395347
395363
395497
395560
395749
395899
395928
396418
396490
396496
396626
396821
397094
397294
397337
397423
397534
397593
397619
397920
398063
398140
398287
398569
398808
398901
398967
399011
399078
399148
399252
399880
399899
399971
400080
400107
400408
400504
400568
400569
400599
400861
401018
401124
401136
401194
401197
401221
401312
401512
401842
401901
402112
402118
402143
402891
402973
403250
403306
403317
403336
403360
403459
403736
403864
403936
404015
404131
404618
405222
405400
405580
406011
406103
406391
406500
406744
406866
406874
406924
407097
407671
407689
407698
407711
407943
408103
408217
408518
408625
408680
408824
409031
409120
409135
409156
409220
409382
409488
409651
409652
409669
409728
409956
410425
410498
410622
411393
411958
412661
412762
412848
412873
412917
413079
413235
413297
413349
413360
413400
413541
413556
413574
413804
413923
413929
414148
414176
414204
414522
414609
414750
414934
414980
415334
415349
415822
415880
415882
415944
416013
416125
416220
416372
416523
416660
416869
416943
417037
417043
417105
417261
417315
417413
417544
417570
417586
417744
417753
417849
418035
418221
418854
419050
419193
419534
419689
419711
420045
420303
420427
420501
420629
420976
421195
421341
421367
421538
421542
421597
421613
421661
421848
422029
422067
422279
422416
422424
422517
422744
422872
423125
423267
424435
424542
424604
424760
424959
424998
425052
425690
425773
425774
425822
426007
426525
426558
426850
426863
426980
427401
428055
428175
428271
428321
428445
428447
428912
429052
429074
429399
429585
429594
429633
429974
430047
430298
430341
430417
430489
430493
430615
431043
431047
431115
431536
431628
431915
431967
432138
432146
432247
432570
432702
432917
433163
433452
433483
433504
433774
434319
434765
434962
435311
435358
435573
435709
435743
435745
435910
435937
436085
436143
436288
436302
436399
436453
436584
436646
436809
436929
436967
436984
437221
437432
437440
437774
438047
438053
438698
438816
438904
438943
438965
439493
439502
439589
439822
439970
439974
440087
440110
440352
440904
441045
441425
441475
441738
442080
442338
442394
442431
442536
442657
443343
443450
443498
443909
443999
444132
444173
444183
444308
444631
444670
444949
445569
445684
445845
445952
446014
446249
446310
446463
446614
446818
446872
447009
447109
447119
447150
447364
447407
447681
448253
448700
448732
448812
448865
449103
449125
449302
449517
449760
449901
449976
450047
450414
450543
450544
450687
450735
450763
450965
450970
451038
451043
451061
451074
451095
451580
451713
451767
451863
452187
452331
452512
452706
452774
452861
452912
452922
453002
453029
453137
453221
453319
453538
453860
453968
454000
454336
454359
454576
454623
454690
454923
454963
455103
455365
455528
455530
455533
455597
455654
455756
455881
455943
456149
456200
456224
456439
456496
456574
456666
456753
456987
457427
457481
457519
457726
457741
457833
458073
458082
458448
458483
458519
458606
458629
458646
458664
459212
459301
459400
459718
459868
460055
460113
460125
460168
460199
460294
460389
460682
460927
461558
461588
461775
461878
461914
462124
462191
462472
462527
462878
463101
463114
463301
463334
463454
463699
464130
464166
464694
464980
465005
465069
465257
465265
465422
465467
465476
465508
465603
465675
465692
465701
465759
465784
466079
466239
466522
466681
466752
466942
467097
467333
467477
467766
467843
467927
468009
468238
468253
468313
468318
469105
469355
469570
469639
469721
469893
469973
470026
470057
470442
470771
470880
470911
470933
471107
471205
471325
471654
472078
472506
472623
472648
472656
472690
472707
472788
473110
473299
473375
473420
473517
474026
474034
474095
474202
474206
474331
474390
474597
474656
474869
475238
475396
475576
475667
475765
475883
476054
476190
476215
476313
476447
476489
476679
476748
476812
476888
477265
477295
477516
477534
477542
477555
477636
477639
477679
477759
478057
478078
478093
478142
478550
478858
478927
479939
480088
480412
480482
480489
480502
480588
481098
481129
481314
481810
481832
481880
482159
482927
482928
482951
483000
483362
483530
483781
483952
484028
484090
484165
484303
484313
484488
484584
484627
484646
484668
484742
484762
484978
485148
485800
485808
485928
485966
486163
486193
486345
486361
486404
486533
486641
486870
486960
487141
487192
487450
487514
487528
487741
487770
487774
487854
487876
488234
488440
488514
489062
489099
489385
489920
489939
489950
490055
490093
490256
490366
490437
490647
490714
490723
491061
491113
491151
491225
491427
491449
491474
491666
491833
492030
492051
492298
492323
492325
492366
492408
492657
492914
492968
493442
493552
493570
493597
493626
493740
494273
494320
494330
494394
494531
494548
494620
494628
495039
495336
495454
495567
496018
496127
496255
496334
496409
496444
496478
496636
496763
496765
496768
497032
497097
497127
497238
497616
497838
497863
497960
497972
498007
498525
498555
498557
498687
498730
498960
498972
499268
499336
499371
499727
499731
499788
499978
500603
500833
500898
501031
501118
501271
501299
501864
502015
502064
502848
502896
502927
503170
503277
503640
503921
504178
504194
504389
504606
504654
504726
504811
504909
504999
505100
505333
505386
505455
505479
505686
505739
505825
505885
505942
505979
506141
506544
506799
507684
507719
507819
508174
508328
508398
508780
508949
509047
509098
509492
509913
509914
509927
510587
510860
510915
511103
511143
511249
511254
511482
511485
511508
511780
511852
511914
512304
512844
513115
513371
513482
513765
513837
513863
513891
513961
513998
514515
514887
515107
515301
515422
515579
515670
515896
515998
516319
516365
516587
516725
516823
516911
517492
517534
517636
517655
517656
517764
517772
517899
518025
518234
518552
518907
518951
519211
519494
519601
519795
519836
520181
520449
520479
520486
520684
520799
520832
520921
521440
521493
521543
521549
521671
521769
521872
521953
521981
522079
522530
522616
522803
522898
522958
522971
522992
523173
523354
524186
524245
524248
524297
524436
524470
524563
524763
524823
524954
525021
525077
525438
525450
525462
525513
525851
525899
525913
526040
526188
526288
526767
526898
527013
527173
527518
527644
527822
527937
528071
528076
528167
528184
528213
528364
528418
528446
528448
528467
528527
528694
528720
529539
529541
529647
529745
529823
529840
529871
529877
530690
530750
530915
531076
531144
531405
531431
531646
531715
531949
531983
532015
532037
532126
532787
532833
532856
532919
532926
532933
532966
533055
533176
533250
533519
533553
533633
534038
534464
534711
534789
534926
535010
535139
535174
535211
535245
535304
535422
535561
535660
535777
535821
536214
536413
536419
537258
537284
537427
537962
538250
538344
539055
539283
539675
539718
539791
539832
540209
540459
540636
540864
541085
541212
541291
541593
541734
542307
542484
542549
542651
543112
543332
543354
543525
543678
544018
544107
544222
544373
544686
545108
545305
545363
545572
545806
545924
546002
546021
546191
546649
547081
547135
547643
547830
548118
548224
548273
548546
548636
548792
548951
549114
549231
549377
549462
549490
549501
549605
549644
549754
549789
549879
549937
550391
550597
550787
550796
550853
550925
551170
551172
551194
551472
551515
552068
552089
552273
552517
552579
552723
552979
553057
553074
553094
553100
553150
553366
553471
553488
553503
553633
553852
553975
554328
554617
554674
554711
555005
555012
555109
555391
555516
555582
555974
556143
556149
556326
556437
556453
556620
556636
556706
556822
557388
557451
557467
557610
557804
557875
557974
558286
558318
558405
558424
558486
558523
558579
558600
558634
558794
558804
558824
558924
559226
559484
559547
559557
559566
559656
559657
559876
559895
559907
559949
560015
560119
560270
560343
560347
560349
560350
560358
560359
560360
560606
560718
560819
561303
561369
561577
561650
561887
562008
562458
562558
562573
563053
563168
563175
563257
563302
563376
563394
563447
563584
563617
563739
564073
564099
564232
564292
564314
564443
564496
564563
564599
564609
564653
564676
564738
565664
565813
565857
566076
566146
566173
566282
566656
566992
567274
567294
567893
568089
568179
568417
568418
568507
568952
569177
569205
569298
569433
569597
569941
569946
570085
570116
570339
570416
570448
570567
570581
570779
570952
570995
571264
571415
571503
571562
571648
571673
571931
571950
572063
572110
572308
572353
572665
572749
573062
573179
573214
573252
573284
573360
573448
573572
573704
573898
573913
573949
573993
574049
574087
574211
574668
574885
575029
575133
575176
575243
575303
575405
575490
575648
575918
576059
576082
576247
576317
576700
577125
577206
577207
577240
577265
577333
577362
577399
577608
577659
577749
577875
578236
578250
578314
578356
578553
578596
578626
578951
579239
579543
579589
579700
579899
580238
580296
580978
581091
581218
581227
581245
581422
581482
581560
581686